\relax 
\@writefile{toc}{\contentsline {section}{\numberline {1}DHCP Relay}{2}}
\@writefile{toc}{\contentsline {subsection}{\numberline {1.1}DORA}{2}}
\@writefile{toc}{\contentsline {subsection}{\numberline {1.2}Functionality}{2}}
\newlabel{sec-functionality}{{1.2}{2}}
\@writefile{toc}{\contentsline {paragraph}{Change broadcast to unicast}{2}}
\@writefile{toc}{\contentsline {paragraph}{Place SIADDR (Server IP Address)}{2}}
\@writefile{toc}{\contentsline {paragraph}{Place GIADDR (Gateway IP Address)}{2}}
\@writefile{toc}{\contentsline {paragraph}{}{2}}
\@writefile{toc}{\contentsline {section}{\numberline {2}Structural choices}{2}}
\@writefile{lof}{\contentsline {figure}{\numberline {1}{\ignorespaces DHCP Packet header changes\relax }}{3}}
\providecommand*\caption@xref[2]{\@setref\relax\@undefined{#1}}
\newlabel{fig-dhcp-packet}{{1}{3}}
\@writefile{lof}{\contentsline {figure}{\numberline {2}{\ignorespaces ASG Diagram DHCP Relay\relax }}{4}}
\newlabel{fig-asg-diagram}{{2}{4}}
\@writefile{toc}{\contentsline {subsection}{\numberline {2.1}Realtime scenarios}{4}}
\@writefile{toc}{\contentsline {paragraph}{Multiple clients boot and server response}{4}}
\@writefile{toc}{\contentsline {paragraph}{Incorrect infinite DHCP packet}{4}}
\@writefile{toc}{\contentsline {paragraph}{Time constrained execution}{4}}
\@writefile{toc}{\contentsline {subsection}{\numberline {2.2}ASG Diagram}{4}}
\@writefile{toc}{\contentsline {section}{\numberline {3}DHCP Relay Task}{5}}
\@writefile{toc}{\contentsline {section}{\numberline {4}Test Procedure}{5}}
\@writefile{lof}{\contentsline {figure}{\numberline {3}{\ignorespaces DHCP Relay Agent: Test Setup\relax }}{6}}
\newlabel{fig-test-setup}{{3}{6}}
